<svg xmlns="http://www.w3.org/2000/svg" viewBox="3806.946 395.711 39.942 37.533">
  <defs>
    <style>
      .cls-1, .cls-3, .cls-4 {
        fill: none;
      }

      .cls-1, .cls-2, .cls-3, .cls-4 {
        stroke: #979797;
        stroke-width: 2px;
      }

      .cls-1, .cls-2, .cls-4 {
        stroke-linecap: round;
      }

      .cls-2 {
        fill: #f5f5f5;
      }

      .cls-3 {
        stroke-linecap: square;
      }

      .cls-3, .cls-4 {
        stroke-linejoin: round;
        fill-rule: evenodd;
      }
    </style>
  </defs>
  <g id="Calendar" transform="translate(3807.946 396.711)">
    <g id="Group" transform="translate(0 0)">
      <path id="Rectangle-53" class="cls-1" d="M0,0H37.942V27.333H0Z" transform="translate(0 8.2)"/>
      <path id="Rectangle-53-Copy" class="cls-2" d="M0,0H37.942V8.2H0Z" transform="translate(0 1.822)"/>
      <path id="Line" class="cls-3" d="M9,2.733V0" transform="translate(-0.014)"/>
      <path id="Line-Copy-20" class="cls-3" d="M30,2.733V0" transform="translate(-0.045)"/>
      <path id="Line-2" data-name="Line" class="cls-4" d="M7,15l2.546,2.323" transform="translate(-0.011 -1.333)"/>
      <path id="Line-Copy-23" class="cls-4" d="M7,23l2.546,2.323" transform="translate(-0.011 -2.044)"/>
      <path id="Line-Copy-24" class="cls-4" d="M18,23l2.546,2.323" transform="translate(-0.027 -2.044)"/>
      <path id="Line-Copy-25" class="cls-4" d="M28,23l2.546,2.323" transform="translate(-0.042 -2.044)"/>
      <path id="Line-Copy-26" class="cls-4" d="M28,31l2.546,2.323" transform="translate(-0.042 -2.756)"/>
      <path id="Line-Copy-27" class="cls-4" d="M18,31l2.546,2.323" transform="translate(-0.027 -2.756)"/>
      <path id="Line-Copy-28" class="cls-4" d="M7,31l2.546,2.323" transform="translate(-0.011 -2.756)"/>
      <path id="Line-Copy-21" class="cls-4" d="M17,15l2.546,2.323" transform="translate(-0.026 -1.333)"/>
      <path id="Line-Copy-22" class="cls-4" d="M28,15l2.546,2.323" transform="translate(-0.042 -1.333)"/>
    </g>
  </g>
</svg>
