<svg xmlns="http://www.w3.org/2000/svg" viewBox="3807.944 148.8 39.724 42.089">
  <defs>
    <style>
      .cls-1, .cls-2 {
        fill: none;
      }

      .cls-1, .cls-2, .cls-3 {
        stroke: #979797;
        stroke-linecap: round;
        stroke-linejoin: round;
        stroke-width: 2px;
      }

      .cls-2 {
        fill-rule: evenodd;
      }

      .cls-3 {
        fill: #f5f5f5;
      }
    </style>
  </defs>
  <g id="Home" transform="translate(3808.944 149.8)">
    <g id="Group" transform="translate(0 0)">
      <rect id="Rectangle-57" class="cls-1" width="27.797" height="22.647" transform="translate(4.964 14.494)"/>
      <path id="Triangle-6-Copy" class="cls-2" d="M18.862,0,37.724,14.494H0Z"/>
      <rect id="Rectangle-58" class="cls-3" width="10.92" height="11.776" transform="translate(13.898 28.313)"/>
    </g>
  </g>
</svg>
